<?xml version="1.0" encoding="UTF-8"?>
<svg width="11px" height="11px" viewBox="0 0 11 11" version="1.1" xmlns="http://www.w3.org/2000/svg" xmlns:xlink="http://www.w3.org/1999/xlink">
    <!-- Generator: Sketch 42 (36781) - http://www.bohemiancoding.com/sketch -->
    <title>Cross/white</title>
    <desc>Created with Sketch.</desc>
    <defs></defs>
    <g id="Symbols" stroke="none" stroke-width="1" fill="none" fill-rule="evenodd">
        <g id="Confirmation-message/failure" transform="translate(-1145.000000, -15.000000)" stroke="#FFFFFF">
            <g id="Cross/white" transform="translate(1145.000000, 15.000000)">
                <g>
                    <path d="M0.7071,9.8565 L9.8561,0.7075" id="Stroke-1" stroke-width="2"></path>
                    <path d="M10.2225,9.8565 L1.0735,0.7075" id="Stroke-3" stroke-width="2"></path>
                </g>
            </g>
        </g>
    </g>
</svg>